8
0.000000 Kcal/mol 0.000000 eV -1968.764159 H
Pb  -0.9500  -0.4500  1.3000
C  0.6500  -0.8500  1.3000
C  1.4500  -0.8500  -0.3000
C  -1.7500  1.1500  1.3000
C  -3.3500  0.7500  0.9000
Pb  2.6500  -0.8500  -1.5000
C  3.0500  0.3500  -2.7000
Pb  -1.7500  0.7500  -0.3000
